Working notes - dplyr and tidyr
…
Amy
1013

Amy
1012

Amy
1012

Dropping a column.

select(storms, -name)

# A tibble: 11,859 × 12
    year month   day  hour   lat  long status      categ…¹  wind press…² tropi…³
   <dbl> <dbl> <int> <dbl> <dbl> <dbl> <chr>       <ord>   <int>   <int>   <int>
 1  1975     6    27     0  27.5 -79   tropical d… -1         25    1013      NA
 2  1975     6    27     6  28.5 -79   tropical d… -1         25    1013      NA
 3  1975     6    27    12  29.5 -79   tropical d… -1         25    1013      NA
 4  1975     6    27    18  30.5 -79   tropical d… -1         25    1013      NA
 5  1975     6    28     0  31.5 -78.8 tropical d… -1         25    1012      NA
 6  1975     6    28     6  32.4 -78.7 tropical d… -1         25    1012      NA
 7  1975     6    28    12  33.3 -78   tropical d… -1         25    1011      NA
 8  1975     6    28    18  34   -77   tropical d… -1         30    1006      NA
 9  1975     6    29     0  34.4 -75.8 tropical s… 0          35    1004      NA
10  1975     6    29     6  34   -74.8 tropical s… 0          40    1002      NA
# … with 11,849 more rows, 1 more variable: hurricane_force_diameter <int>, and
#   abbreviated variable names ¹​category, ²​pressure,
#   ³​tropicalstorm_force_diameter

Obtaining a range of variables.

select(storms, wind:year)

# A tibble: 11,859 × 9
    wind category status               long   lat  hour   day month  year
   <int> <ord>    <chr>               <dbl> <dbl> <dbl> <int> <dbl> <dbl>
 1    25 -1       tropical depression -79    27.5     0    27     6  1975
 2    25 -1       tropical depression -79    28.5     6    27     6  1975
 3    25 -1       tropical depression -79    29.5    12    27     6  1975
 4    25 -1       tropical depression -79    30.5    18    27     6  1975
 5    25 -1       tropical depression -78.8  31.5     0    28     6  1975
 6    25 -1       tropical depression -78.7  32.4     6    28     6  1975
 7    25 -1       tropical depression -78    33.3    12    28     6  1975
 8    30 -1       tropical depression -77    34      18    28     6  1975
 9    35 0        tropical storm      -75.8  34.4     0    29     6  1975
10    40 0        tropical storm      -74.8  34       6    29     6  1975
# … with 11,849 more rows

filter()

Filter out observations using logical tests.

filter(storms, wind >= 50, name %in% c('Alberto', 'Alex', 'Allison'))

# A tibble: 128 × 13
   name     year month   day  hour   lat  long status      categ…¹  wind press…²
   <chr>   <dbl> <dbl> <int> <dbl> <dbl> <dbl> <chr>       <ord>   <int>   <int>
 1 Alberto  1982     6     3    12  23.2 -84.2 tropical s… 0          50     995
 2 Alberto  1982     6     3    18  24   -83.6 hurricane   1          75     985
 3 Alberto  1982     6     4     0  24.8 -83.4 hurricane   1          65     992
 4 Alberto  1982     6     4     6  24.9 -84.1 tropical s… 0          55     998
 5 Alberto  1994     7     3     6  28.8 -86.8 tropical s… 0          50     997
 6 Alberto  1994     7     3    12  29.9 -86.7 tropical s… 0          55     993
 7 Alberto  1994     7     3    15  30.4 -86.5 tropical s… 0          55     993
 8 Allison  1995     6     4     0  22   -86   tropical s… 0          50     997
 9 Allison  1995     6     4     6  23.3 -86.3 tropical s… 0          60     995
10 Allison  1995     6     4    12  24.7 -86.2 hurricane   1          65     987
# … with 118 more rows, 2 more variables: tropicalstorm_force_diameter <int>,
#   hurricane_force_diameter <int>, and abbreviated variable names ¹​category,
#   ²​pressure

mutate()

Mutate() allows you to generate new variables from existing ones.

df = mutate(storms, ratio = pressure/wind)
select(df, name, ratio)

# A tibble: 11,859 × 2
   name  ratio
   <chr> <dbl>
 1 Amy    40.5
 2 Amy    40.5
 3 Amy    40.5
 4 Amy    40.5
 5 Amy    40.5
 6 Amy    40.5
 7 Amy    40.4
 8 Amy    33.5
 9 Amy    28.7
10 Amy    25.0
# … with 11,849 more rows
…
Calculates summary statistics from a dataframe.

pollution %>% summarise(median = median(amount), variance = var(amount))

  median variance
1   22.5   1731.6

arrange()

Arranges the order of the rows within a dataframe based on the values within a column.

arrange(storms, wind)

# A tibble: 11,859 × 13
   name       year month   day  hour   lat  long status    categ…¹  wind press…²
   <chr>     <dbl> <dbl> <int> <dbl> <dbl> <dbl> <chr>     <ord>   <int>   <int>
 1 Bonnie     1986     6    28     6  36.5 -91.3 tropical… -1         10    1013
 2 Bonnie     1986     6    28    12  37.2 -90   tropical… -1         10    1012
 3 AL031987   1987     8    16    18  30.9 -83.2 tropical… -1         10    1014
 4 AL031987   1987     8    17     0  31.4 -82.9 tropical… -1         10    1015
 5 AL031987   1987     8    17     6  31.8 -82.3 tropical… -1         10    1015
 6 Alberto    1994     7     7     0  32.7 -86.3 tropical… -1         10    1012
 7 Alberto    1994     7     7     6  32.7 -86.6 tropical… -1         10    1012
 8 Alberto    1994     7     7    12  32.8 -86.8 tropical… -1         10    1012
 9 Alberto    1994     7     7    18  33   -87   tropical… -1         10    1013
10 Claudette  1979     7    27    12  34   -95.9 tropical… -1         15    1007
# … with 11,849 more rows, 2 more variables:
#   tropicalstorm_force_diameter <int>, hurricane_force_diameter <int>, and
#   abbreviated variable names ¹​category, ²​pressure

arrange(storms, desc(wind))

# A tibble: 11,859 × 13
   name     year month   day  hour   lat  long status    category  wind pressure
   <chr>   <dbl> <dbl> <int> <dbl> <dbl> <dbl> <chr>     <ord>    <int>    <int>
 1 Gilbert  1988     9    14     0  19.7 -83.8 hurricane 5          160      888
 2 Wilma    2005    10    19    12  17.3 -82.8 hurricane 5          160      882
 3 Dorian   2019     9     1    16  26.5 -77   hurricane 5          160      910
 4 Dorian   2019     9     1    18  26.5 -77.1 hurricane 5          160      910
 5 Gilbert  1988     9    14     6  19.9 -85.3 hurricane 5          155      889
 6 Mitch    1998    10    26    18  16.9 -83.1 hurricane 5          155      905
 7 Mitch    1998    10    27     0  17.2 -83.8 hurricane 5          155      910
 8 Rita     2005     9    22     3  24.7 -87.3 hurricane 5          155      895
 9 Rita     2005     9    22     6  24.8 -87.6 hurricane 5          155      897
10 Dorian   2019     9     1    12  26.5 -76.5 hurricane 5          155      927
# … with 11,849 more rows, and 2 more variables:
#   tropicalstorm_force_diameter <int>, hurricane_force_diameter <int>

Adding additional variables into the arrange function will use those as tiebreakers between observations that have the same value.

arrange(storms, wind,year)

# A tibble: 11,859 × 13
   name       year month   day  hour   lat  long status    categ…¹  wind press…²
   <chr>     <dbl> <dbl> <int> <dbl> <dbl> <dbl> <chr>     <ord>   <int>   <int>
 1 Bonnie     1986     6    28     6  36.5 -91.3 tropical… -1         10    1013
 2 Bonnie     1986     6    28    12  37.2 -90   tropical… -1         10    1012
 3 AL031987   1987     8    16    18  30.9 -83.2 tropical… -1         10    1014
 4 AL031987   1987     8    17     0  31.4 -82.9 tropical… -1         10    1015
 5 AL031987   1987     8    17     6  31.8 -82.3 tropical… -1         10    1015
 6 Alberto    1994     7     7     0  32.7 -86.3 tropical… -1         10    1012
 7 Alberto    1994     7     7     6  32.7 -86.6 tropical… -1         10    1012
 8 Alberto    1994     7     7    12  32.8 -86.8 tropical… -1         10    1012
 9 Alberto    1994     7     7    18  33   -87   tropical… -1         10    1013
10 Claudette  1979     7    27    12  34   -95.9 tropical… -1         15    1007
# … with 11,849 more rows, 2 more variables:
#   tropicalstorm_force_diameter <int>, hurricane_force_diameter <int>, and
#   abbreviated variable names ¹​category, ²​pressure

Pipe Operator

storms %>%
  filter(wind>=50) %>%
  select(name, pressure)

# A tibble: 5,756 × 2
   name  pressure
   <chr>    <int>
 1 Amy        998
 2 Amy        998
 3 Amy        998
 4 Amy        987
 5 Amy        987
 6 Amy        984
 7 Amy        984
 8 Amy        984
 9 Amy        984
10 Amy        984
# … with 5,746 more rows

storms %>%
  mutate(ratio = pressure/wind) %>%
  select(name, ratio) 

# A tibble: 11,859 × 2
   name  ratio
   <chr> <dbl>
 1 Amy    40.5
 2 Amy    40.5
 3 Amy    40.5
 4 Amy    40.5
 5 Amy    40.5
 6 Amy    40.5
 7 Amy    40.4
 8 Amy    33.5
 9 Amy    28.7
10 Amy    25.0
# … with 11,849 more rows
…
